…
    ## `summarise()` has grouped output by 'city_state'. You can override using the `.groups` argument.
    ## `summarise()` has grouped output by 'city_state'. You can override using the `.groups` argument.

``` r
homicide_dt
```

    ## # A tibble: 50 × 3
    ## # Groups:   city_state [50]
    ##    city_state     unsolved homicide
    ##    <chr>             <int>    <int>
    ##  1 Albuquerque NM      146      378
    ##  2 Atlanta GA          373      973
    ##  3 Baltimore MD       1825     2827
    ##  4 Baton Rouge LA      196      424
    ##  5 Birmingham AL       347      800
    ##  6 Boston MA           310      614
    ##  7 Buffalo NY          319      521
    ##  8 Charlotte NC        206      687
    ##  9 Chicago IL         4073     5535
    ## 10 Cincinnati OH       309      694
    ## # … with 40 more rows
…
``` r
city_dt <- homicide_dt %>%
  mutate(
    prop_test = map2(unsolved, homicide, prop.test),
    prop_test = map(prop_test, broom::tidy)
  ) %>%
  unnest(cols = prop_test) %>%
  select(city_state,estimate,conf.low,conf.high)
city_dt
```

    ## # A tibble: 50 × 4
    ## # Groups:   city_state [50]
    ##    city_state     estimate conf.low conf.high
    ##    <chr>             <dbl>    <dbl>     <dbl>
    ##  1 Albuquerque NM    0.386    0.337     0.438
    ##  2 Atlanta GA        0.383    0.353     0.415
    ##  3 Baltimore MD      0.646    0.628     0.663
    ##  4 Baton Rouge LA    0.462    0.414     0.511
    ##  5 Birmingham AL     0.434    0.399     0.469
    ##  6 Boston MA         0.505    0.465     0.545
    ##  7 Buffalo NY        0.612    0.569     0.654
    ##  8 Charlotte NC      0.300    0.266     0.336
    ##  9 Chicago IL        0.736    0.724     0.747
    ## 10 Cincinnati OH     0.445    0.408     0.483
    ## # … with 40 more rows
…
fill_missing <- function(x){
  if(is.numeric(x)){
    x = ifelse(is.na(x), mean(x, na.rm = T), x)
  }
  else if(is.character(x)){
    x = ifelse(is.na(x), "virginica",x)
  }
}
  
fill_dt <- map_df(iris_with_missing,fill_missing)

fill_dt
```

    ## # A tibble: 150 × 5
    ##    Sepal.Length Sepal.Width Petal.Length Petal.Width Species
    ##           <dbl>       <dbl>        <dbl>       <dbl> <chr>  
    ##  1         5.1          3.5         1.4         0.2  setosa 
    ##  2         4.9          3           1.4         0.2  setosa 
    ##  3         4.7          3.2         1.3         0.2  setosa 
    ##  4         4.6          3.1         1.5         1.19 setosa 
    ##  5         5            3.6         1.4         0.2  setosa 
    ##  6         5.4          3.9         1.7         0.4  setosa 
    ##  7         5.82         3.4         1.4         0.3  setosa 
    ##  8         5            3.4         1.5         0.2  setosa 
    ##  9         4.4          2.9         1.4         0.2  setosa 
    ## 10         4.9          3.1         3.77        0.1  setosa 
    ## # … with 140 more rows
